{
  "defaultSeverity": "error",
  "rules": {
    "no-require-imports": false,
    "variable-name": false,
    "no-var-requires": false,
    "only-arrow-functions": false,
    "no-string-literal": false,
    "no-console": false
  },
  "extends": [
    "tslint:recommended"
  ]
}